<svg xmlns="http://www.w3.org/2000/svg" viewBox="0 0 87.457 87.457" preserveAspectRatio="xMidYMid meet">
  <title>Complete</title>
  <desc>Complete Maturity</desc>
  <circle cx="56.661" cy="71.425" r="42.229" stroke-width="3" transform="translate(-12.933 -27.696)"/>
</svg>
